{
  "images" : [
    {
      "filename" : "iPhone-14-Blue-wallpaper.png",
      "idiom" : "iphone",
      "scale" : "1x"
    },
    {
      "idiom" : "iphone",
      "scale" : "2x"
    },
    {
      "idiom" : "iphone",
      "scale" : "3x"
    }
  ],
  "info" : {
    "author" : "xcode",
    "version" : 1
  },
  "properties" : {
    "compression-type" : "automatic",
    "template-rendering-intent" : "original"
  }
}
